Chapter 4 Data Wrangling | Introduction to Statistics and Data Science
…
This is our first example of the powerful chaining capability in dplyr. This is the weird notation %>% which means take the output of the last entry as the input to the next. Of course, that is a complicated way of saying we formed a chain. We start with the full data set, then filter it to just the rows which match our conditions then we select the only column we care about from that filtered data set. All of the dplyr commands can be used in a chain.

Exercise 4.7  Use a chain to find the order of animals in the animal_sleep data set from the smallest to largest brain weight (brainwt). Do this all in one command.

4.6 Grouping Data Together

Our nfl plays data set is based around recording data for each individual play. However, we might be more interested in grouping things by the player, team, league, play-type, etc.

For example, lets try and find the average yards gained per play for each team:

nflplays %>% group_by(posteam) %>% summarize(av.yds.gained=mean(Yards.Gained))

## # A tibble: 36 × 2
##    posteam av.yds.gained
##    <fct>           <dbl>
##  1 ARI              5.77
##  2 ATL              6.12
##  3 BAL              5.65
##  4 BUF              5.71
##  5 CAR              5.90
##  6 CHI              5.84
##  7 CIN              5.73
##  8 CLE              5.44
##  9 DAL              6.34
## 10 DEN              5.99
## # … with 26 more rows

Let’s unpack what this command does. It first groups the plays by the posteam column meaning grouped by the team with the ball. The group_by command is not terribly useful by itself, you will just about always want to use it in combination with the summarize command. The summarize command is used to create a summary of the data after it has been grouped in some way. It will create new summary columns in a new data frame. In this case we compute the mean of the Yards.Gained column.

Typically, we will want to group our data using a categorical column(s) in the data set.

We can extend this basic command in many different ways. For example, we can group our data using more than one categorical variable. The below command finds the average yards gained for each team and season.

nflplays %>% 
  group_by(posteam, Season) %>% 
  summarize(av.yards.gained=mean(Yards.Gained))

## # A tibble: 297 × 3
## # Groups:   posteam [36]
##    posteam Season av.yards.gained
##    <fct>   <fct>            <dbl>
##  1 ARI     2009              6.07
##  2 ARI     2010              5.21
##  3 ARI     2011              6.05
##  4 ARI     2012              4.78
##  5 ARI     2013              5.94
##  6 ARI     2014              5.55
##  7 ARI     2015              6.88
##  8 ARI     2016              5.96
##  9 ARI     2017              5.47
## 10 ATL     2009              5.54
## # … with 287 more rows

Now we can see the average yards gained for each team and season from the results.

In addition we could also calculate more columns in our summary. For example, in the below we find the mean yards gained, the median yards gained and the standard deviation.

nflplays %>% group_by(posteam, Season) %>% 
  summarize(av.yards.gained=mean(Yards.Gained), median.yds.gained=median(Yards.Gained), sd.yds.gained=sd(Yards.Gained))

## # A tibble: 297 × 5
## # Groups:   posteam [36]
##    posteam Season av.yards.gained median.yds.gained sd.yds.gained
##    <fct>   <fct>            <dbl>             <dbl>         <dbl>
##  1 ARI     2009              6.07                 4          7.49
##  2 ARI     2010              5.21                 2          8.19
##  3 ARI     2011              6.05                 3          9.48
##  4 ARI     2012              4.78                 2          7.26
##  5 ARI     2013              5.94                 3          8.94
##  6 ARI     2014              5.55                 2          9.01
##  7 ARI     2015              6.88                 4          9.74
##  8 ARI     2016              5.96                 3          8.45
##  9 ARI     2017              5.47                 3          7.56
## 10 ATL     2009              5.54                 3          7.67
## # … with 287 more rows

The names you choose in the summarize command are up to you. Just name them something you will be able to remember for later. We can use any of our summary statistics commands learned in the EDA notes to find a summary of our grouped data.

Sometimes you might want to just find the number of entries as well. For this we can use the n() function. This just counts up the number of entries in each group. The below adds a column which gives the number of plays.

nflplays %>% group_by(posteam, Season) %>% 
  summarize(av.yards.gained=mean(Yards.Gained), number.of.plays=n())

## # A tibble: 297 × 4
## # Groups:   posteam [36]
##    posteam Season av.yards.gained number.of.plays
##    <fct>   <fct>            <dbl>           <int>
##  1 ARI     2009              6.07             921
##  2 ARI     2010              5.21             863
##  3 ARI     2011              6.05             913
##  4 ARI     2012              4.78             941
##  5 ARI     2013              5.94             958
##  6 ARI     2014              5.55             943
##  7 ARI     2015              6.88             961
##  8 ARI     2016              5.96            1026
##  9 ARI     2017              5.47             980
## 10 ATL     2009              5.54             981
## # … with 287 more rows

Also, it is sometimes useful to add up a column for each group. We can do this with the sum() command in R. Let’s add a column to our data which has the total yards gained for each season/team.

nflplays %>% group_by(posteam, Season) %>% 
  summarize(av.yards.gained=mean(Yards.Gained), number.of.plays=n(), total.yards=sum(Yards.Gained))

## # A tibble: 297 × 5
## # Groups:   posteam [36]
##    posteam Season av.yards.gained number.of.plays total.yards
##    <fct>   <fct>            <dbl>           <int>       <int>
##  1 ARI     2009              6.07             921        5587
##  2 ARI     2010              5.21             863        4495
##  3 ARI     2011              6.05             913        5526
##  4 ARI     2012              4.78             941        4495
##  5 ARI     2013              5.94             958        5688
##  6 ARI     2014              5.55             943        5233
##  7 ARI     2015              6.88             961        6610
##  8 ARI     2016              5.96            1026        6115
##  9 ARI     2017              5.47             980        5364
## 10 ATL     2009              5.54             981        5431
## # … with 287 more rows

4.6.0.1 Example 1

Lets find the number of plays which were pass plays for each team in the NFL.

First we want to filter to keep only rows which correspond to a pass play. Then we will group these by the teams and summarize by counting up the number of pass plays.

nflplays %>% filter(PlayType=='Pass') %>% 
  group_by(posteam) %>% 
  summarize(num.pass.plays=n()) 

## # A tibble: 36 × 2
##    posteam num.pass.plays
##    <fct>            <int>
##  1 ARI               5169
##  2 ATL               5244
##  3 BAL               5115
##  4 BUF               4477
##  5 CAR               4455
##  6 CHI               4661
##  7 CIN               4730
##  8 CLE               4900
##  9 DAL               4852
## 10 DEN               5110
## # … with 26 more rows

4.6.0.2 Example 2

Lets find the average yards per rush attempt grouped by the player attempting the rush. Now we are grouping by the categorical variable Rusher instead of the team.

nflplays %>% filter(PlayType=='Run') %>% 
  group_by(Rusher) %>% 
  summarise(av.yards.per.carry=mean(Yards.Gained))

## # A tibble: 1,205 × 2
##    Rusher      av.yards.per.carry
##    <fct>                    <dbl>
##  1 A. Bradshaw              -5   
##  2 A.Abdullah                3.88
##  3 A.Allen                   4.10
##  4 A.Andrews                 3.61
##  5 A.Armstrong               9.5 
##  6 A.Bailey                  1   
##  7 A.Barbre                 15   
##  8 A.Benn                    2.93
##  9 A.Blue                    3.59
## 10 A.Boldin                  4   
## # … with 1,195 more rows

Even this summary data set is rather large so we might want to refine it some more. It has some strange points because some of the players only carried the ball a few times. Let’s get rid of the players that carried the ball less than 200 times.

nflplays %>% filter(PlayType=='Run') %>% 
  group_by(Rusher) %>% 
  summarise(av.yards.per.carry=mean(Yards.Gained), num.carries=n()) %>% 
  filter(num.carries>=200)

## # A tibble: 159 × 3
##    Rusher      av.yards.per.carry num.carries
##    <fct>                    <dbl>       <int>
##  1 A.Abdullah                3.88         317
##  2 A.Blue                    3.59         514
##  3 A.Bradshaw                4.43         977
##  4 A.Brown                   4.12         288
##  5 A.Collins                 4.54         237
##  6 A.Dalton                  4.61         244
##  7 A.Dixon                   3.48         268
##  8 A.Ellington               4.12         410
##  9 A.Foster                  4.36        1460
## 10 A.Luck                    7.18         203
## # … with 149 more rows

We might want to sort this data to put it in some order based on the average yards per carry. We can do this with the arrange() command from dplyr.

nflplays %>% filter(PlayType=='Run') %>% 
  group_by(Rusher) %>% 
  summarise(av.yards.per.carry=mean(Yards.Gained), num.carries=n()) %>% 
  filter(num.carries>=200) %>% arrange(av.yards.per.carry)

## # A tibble: 159 × 3
##    Rusher     av.yards.per.carry num.carries
##    <fct>                   <dbl>       <int>
##  1 <NA>                     2.28         388
##  2 C.Taylor                 2.92         219
##  3 J.Kuhn                   3.08         206
##  4 S.Draughn                3.11         221
##  5 K.Davis                  3.27         244
##  6 A.Williams               3.30         328
##  7 J.Best                   3.30         247
##  8 M.Bell                   3.35         213
##  9 T.Riddick                3.39         239
## 10 T.Mason                  3.40         248
## # … with 149 more rows

To use the arrange command you just give it the column (numerical generally) that you want to use to sort the data. By default it will sort the data into ascending order (small to big). If we want to reverse that (big to small) we can use the desc() command.

nflplays %>% filter(PlayType=='Run') %>% group_by(Rusher) %>% 
  summarise(av.yards.per.carry=mean(Yards.Gained), num.carries=n()) %>%
  filter(num.carries>=500) %>% arrange(desc(av.yards.per.carry))

## # A tibble: 70 × 3
##    Rusher     av.yards.per.carry num.carries
##    <fct>                   <dbl>       <int>
##  1 C.Newton                 5.94         740
##  2 J.Charles                5.26        1309
##  3 C.Spiller                4.97         694
##  4 E.Elliott                4.69         550
##  5 J.Forsett                4.68         809
##  6 A.Peterson               4.68        1952
##  7 D.Sproles                4.67         576
##  8 M.Ingram                 4.57        1155
##  9 L.McCoy                  4.54        2135
## 10 F.Jones                  4.5          578
## # … with 60 more rows
…
